[
  { 
    "name": "michael jacson",
    "price": "17 USD",
    "image": "img/1.jpg",
    "barcode":"2012976",
    "color": "#eee",
    "descriptions": "Play-list"
  },
  { 
    "name": "For sleep",
    "price": "10 USD",
    "image": "img/2.jpg",
    "barcode":"2012937",
    "color": "#eee",
    "descriptions": "Songs for sleep"
  },
  { 
    "name": "Instrumental",
    "price": "16 USD",
    "image": "img/6.jpg",
    "barcode":"2012930",
    "color": "#eee",
    "descriptions": "Instrumental Music"
  },
  { 
    "name": "Piano",
    "price": "15 USD",
    "image": "img/10.jpg",
    "barcode":"2012989",
    "color": "#eee",
    "descriptions": "Piano Music"
  },
  { 
    "name": "Tech muz",
    "price": "12 USD",
    "image": "img/11.jpg",
    "barcode":"20129376",
    "color": "#eee",
    "descriptions": "Techno muz"
  },
  { 
    "name": "Rock'n'roll",
    "price": "11 USD",
    "image": "img/12.jpg",
    "barcode":"20129399",
    "color": "#eee",
    "descriptions": "Rock'n'roll"
  },
  { 
    "name": "michael jacson",
    "price": "12 USD",
    "image": "img/13.jpg",
    "barcode":"2012987",
    "color": "#eee",
    "descriptions": "ssssssysaysahjdaksldblj"
  },
  { 
    "name": "michael jacson",
    "price": "13 USD",
    "image": "img/14.jpg",
    "barcode":"20120000",
    "color": "#eee",
    "descriptions": "ssssssysaysahjdaksldblj"
  },
  { 
    "name": "michael jacson",
    "price": "14 USD",
    "image": "img/clock.jpg",
    "barcode":"2012909",
    "color": "#eee",
    "descriptions": "ssssssysaysahjdaksldblj"
  },
  { 
    "name": "michael jacson",
    "price": "15 USD",
    "image": "img/1.jpg",
    "barcode":"2012934",
    "color": "#eee",
    "descriptions": "ssssssysaysahjdaksldblj"
  }
]